Homework 9
…
We see from the output that there are no missing values in any of the columns.

Steps 2 through 4. We combine steps 2 through 4. First, we check the data type for each column. We first print the tibble to view this.

rentals

# A tibble: 8,760 × 14
   Date       `Rented Bike Count`  Hour `Temperature(°C)` `Humidity(%)`
   <chr>                    <dbl> <dbl>             <dbl>         <dbl>
 1 01/12/2017                 254     0              -5.2            37
 2 01/12/2017                 204     1              -5.5            38
 3 01/12/2017                 173     2              -6              39
 4 01/12/2017                 107     3              -6.2            40
 5 01/12/2017                  78     4              -6              36
 6 01/12/2017                 100     5              -6.4            37
 7 01/12/2017                 181     6              -6.6            35
 8 01/12/2017                 460     7              -7.4            38
 9 01/12/2017                 930     8              -7.6            37
10 01/12/2017                 490     9              -6.5            27
# ℹ 8,750 more rows
# ℹ 9 more variables: `Wind speed (m/s)` <dbl>, `Visibility (10m)` <dbl>,
#   `Dew point temperature(°C)` <dbl>, `Solar Radiation (MJ/m2)` <dbl>,
#   `Rainfall(mm)` <dbl>, `Snowfall (cm)` <dbl>, Seasons <chr>, Holiday <chr>,
#   `Functioning Day` <chr>
…
recipe(bike_count_daily ~., data = rentals_condensed_train) |>
  step_date(date, features = 'dow') |>
  step_mutate(weekend = factor(ifelse(
    date_dow %in% c('Sat', 'Sun'),
    'Yes',
    'No'
  ))) |>
  step_rm(date_dow) |>
  update_role(date, new_role = 'Date') |>
  step_normalize(all_numeric(), -all_outcomes()) |>
  step_dummy(holiday, seasons, weekend) |>
  prep(training = rentals_condensed_train) |>
  bake(rentals_condensed_train)

# A tibble: 263 × 15
   date       rainfall_daily snowfall_daily temp_mean humidity_mean
   <date>              <dbl>          <dbl>     <dbl>         <dbl>
 1 2018-09-01         -0.316         -0.227     1.09          0.165
 2 2018-09-03          2.61          -0.227     0.927         1.56 
 3 2018-09-04         -0.316         -0.227     0.897         0.854
 4 2018-09-06         -0.316         -0.227     0.982         0.799
 5 2018-09-08         -0.316         -0.227     0.762        -0.664
 6 2018-09-09         -0.316         -0.227     0.785        -0.611
 7 2018-09-11         -0.316         -0.227     0.751        -0.710
 8 2018-09-12         -0.316         -0.227     0.834        -0.449
 9 2018-09-13         -0.316         -0.227     0.913         0.237
10 2018-09-15         -0.299         -0.227     0.893         1.13 
# ℹ 253 more rows
# ℹ 10 more variables: wind_speed_mean <dbl>, visibility_mean <dbl>,
#   dew_point_temp_mean <dbl>, solar_radiation_mean <dbl>,
#   bike_count_daily <dbl>, holiday_No.Holiday <dbl>, seasons_Spring <dbl>,
#   seasons_Summer <dbl>, seasons_Winter <dbl>, weekend_Yes <dbl>
…
We see that the random forest model has the lowest MAE and RMSE, indicating that this model performs best on the test set!!!

Final Fits and Summaries

In this section we extract the final model fits on the training data for each type and report a summary of each model.

For MLR and LASSO, we report final coefficient tables.

rentals_fit_final |>
  extract_fit_parsnip() |>
  tidy()

# A tibble: 29 × 5
   term                   estimate std.error statistic  p.value
   <chr>                     <dbl>     <dbl>     <dbl>    <dbl>
 1 (Intercept)              16273.     1722.     9.45  3.74e-18
 2 rainfall_daily_poly_1   -29082.     6758.    -4.30  2.47e- 5
 3 rainfall_daily_poly_2    10579.     3452.     3.06  2.44e- 3
 4 snowfall_daily_poly_1     -805.     3517.    -0.229 8.19e- 1
 5 snowfall_daily_poly_2    -2563.     3323.    -0.771 4.41e- 1
 6 temp_mean_poly_1         27585.    76262.     0.362 7.18e- 1
 7 temp_mean_poly_2        -10511.    19704.    -0.533 5.94e- 1
 8 humidity_mean_poly_1    -27287.    27164.    -1.00  3.16e- 1
 9 humidity_mean_poly_2     -6417.     6698.    -0.958 3.39e- 1
10 wind_speed_mean_poly_1   -9615.     3445.    -2.79  5.68e- 3
# ℹ 19 more rows
…
